<?xml version="1.0" encoding="UTF-8" standalone="no"?>
<svg
   xmlns:dc="http://purl.org/dc/elements/1.1/"
   xmlns:cc="http://creativecommons.org/ns#"
   xmlns:rdf="http://www.w3.org/1999/02/22-rdf-syntax-ns#"
   xmlns:svg="http://www.w3.org/2000/svg"
   xmlns="http://www.w3.org/2000/svg"
   height="24"
   version="1.1"
   viewBox="0 0 24 24"
   width="24"
   id="svg2">
  <metadata
     id="metadata16">
    <rdf:RDF>
      <cc:Work
         rdf:about="">
        <dc:format>image/svg+xml</dc:format>
        <dc:type
           rdf:resource="http://purl.org/dc/dcmitype/StillImage" />
        <dc:title></dc:title>
      </cc:Work>
    </rdf:RDF>
  </metadata>
  <desc
     id="desc6" />
  <defs
     id="defs8" />
  <g
     id="g4151-3"
     transform="matrix(0.89036387,0,0,0.89036387,0.7035084,3.300403)">
    <g
       id="g3340-6"
       transform="matrix(1.2037037,0,0,1.2037037,1.8541667,-3.4699074)">
      <path
         id="rect4144-7"
         transform="matrix(1.2291667,0,0,1.2291667,-2.0625,-2.5208334)"
         d="M 8.8554688,3.2636719 A 1.3983051,1.3983051 0 0 0 7.4570312,4.6601562 1.3983051,1.3983051 0 0 0 8.8554688,6.0585938 1.3983051,1.3983051 0 0 0 10.253906,4.6601562 1.3983051,1.3983051 0 0 0 8.8554688,3.2636719 Z M 12.523438,4.5527344 V 6.2226562 H 5.3945312 V 4.9335938 H 3.0429688 V 6.2226562 H 2.6640625 V 19.039062 H 15.328125 V 6.2226562 4.5527344 Z"
         style="opacity:1;fill:#ffffff;fill-opacity:1;stroke:none;stroke-width:1;stroke-linecap:butt;stroke-linejoin:miter;stroke-miterlimit:4;stroke-dasharray:none;stroke-dashoffset:0;stroke-opacity:0.63690479" />
      <g
         style="fill:none;fill-rule:evenodd;stroke:none;stroke-width:1"
         id="Page-1-5">
        <g
           style="fill:#000000"
           id="Core-3"
           transform="translate(-171,-127)">
          <g
             id="content-paste-5"
             transform="translate(171,127)">
            <path
               d="M 16,2 H 11.8 C 11.4,0.8 10.3,0 9,0 7.7,0 6.6,0.8 6.2,2 H 2 C 0.9,2 0,2.9 0,4 v 16 c 0,1.1 0.9,2 2,2 h 14 c 1.1,0 2,-0.9 2,-2 V 4 C 18,2.9 17.1,2 16,2 Z M 9,2 C 9.6,2 10,2.4 10,3 10,3.6 9.6,4 9,4 8.4,4 8,3.6 8,3 8,2.4 8.4,2 9,2 Z m 7,18 H 2 V 4 H 4 V 7 H 14 V 4 h 2 z"
               id="Shape-6" />
          </g>
        </g>
      </g>
    </g>
  </g>
  <path
     id="path3-3-7"
     d="m 11.869141,8.8793442 c -3.4548409,0 -6.0078129,2.5315128 -6.0078129,6.2714858 0,0.981328 0.3579281,2.243562 0.6894531,3.050781 0.122814,0.302681 0.4352474,0.446501 0.7089844,0.38086 0.136868,-0.03282 0.2660229,-0.123861 0.3417969,-0.261719 0.07577,-0.137859 0.096621,-0.313904 0.056641,-0.513672 -0.175095,-0.894671 -0.1835937,-1.563127 -0.1835937,-2.189453 0,-1.310658 0.4202392,-2.493917 1.1757812,-3.347657 0.755542,-0.853738 1.843424,-1.384766 3.21875,-1.384766 2.313648,0 4.28125,1.809 4.28125,4.265626 0,1.754687 -1.383347,3.3125 -3.34375,3.3125 -0.541139,0 -1.037295,-0.311023 -1.402344,-0.757812 -0.365046,-0.44679 -0.587891,-1.024918 -0.587891,-1.5 0,-0.518996 0.104526,-0.95994 0.296875,-1.25586 0.192349,-0.295921 0.456049,-0.458985 0.859375,-0.458984 0.390462,0 0.639455,0.157356 0.759766,0.378906 0.120314,0.221549 0.118791,0.525699 -0.07617,0.851562 l -0.0039,0.0078 -0.0039,0.0059 c -0.105877,0.209958 -0.103771,0.435966 -0.02149,0.619141 0.08228,0.183174 0.232878,0.324455 0.410156,0.421875 0.354557,0.194837 0.846756,0.220112 1.199219,-0.08594 0.569038,-0.49906 0.619141,-1.364856 0.619141,-1.716796 0,-0.448431 -0.220481,-1.067614 -0.669922,-1.601563 -0.44945,-0.533974 -1.144046,-0.972682 -2.070322,-0.972682 -1.145899,0 -2.04892,0.46385 -2.6542965,1.158203 -0.605377,0.694353 -0.9179687,1.614509 -0.9179687,2.533203 0,1.330013 0.4681524,2.436239 1.2734374,3.203125 0.8052838,0.766886 1.9414008,1.191406 3.2519528,1.191406 1.679095,0 2.957773,-0.763531 3.802735,-1.808593 0.844963,-1.045061 1.267578,-2.367061 1.267578,-3.523438 0,-3.524871 -2.949764,-6.2714856 -6.271484,-6.2714856 z"
     style="clip-rule:evenodd;fill:#0086ff;fill-opacity:1;fill-rule:evenodd;stroke:none;stroke-width:0.34900001;stroke-miterlimit:4;stroke-dasharray:none;stroke-opacity:1" />
</svg>
