<?xml version="1.0" encoding="UTF-8" standalone="no"?>
<svg
   xmlns:dc="http://purl.org/dc/elements/1.1/"
   xmlns:cc="http://creativecommons.org/ns#"
   xmlns:rdf="http://www.w3.org/1999/02/22-rdf-syntax-ns#"
   xmlns:svg="http://www.w3.org/2000/svg"
   xmlns="http://www.w3.org/2000/svg"
   height="24"
   width="24"
   xml:space="preserve"
   viewBox="0 0 24 24"
   version="1.1"
   id="Layer_1"
   enable-background="new 0 0 800 800"><metadata
     id="metadata15"><rdf:RDF><cc:Work
         rdf:about=""><dc:format>image/svg+xml</dc:format><dc:type
           rdf:resource="http://purl.org/dc/dcmitype/StillImage" /><dc:title></dc:title></cc:Work></rdf:RDF></metadata><defs
     id="defs13" /><path
     style="opacity:1;fill:#ffffff;fill-opacity:1;stroke:none;stroke-width:0.52838308;stroke-linecap:round;stroke-miterlimit:4;stroke-dasharray:none;stroke-opacity:1;paint-order:markers fill stroke"
     d="m 12,3.0324657 c -1.580602,0 -3.0491778,0.6247337 -4.1543527,1.7299083 -1.1051743,1.1051746 -1.7277647,2.5716082 -1.7277647,4.1522086 0,1.5805994 0.6225902,3.0513344 1.7277647,4.1564954 v 0.0022 h 0.00215 c 1.2872496,1.326367 2.1077249,2.997132 2.3922897,4.776006 l 3.519839,0.03429 c 0.284299,-1.811567 1.101199,-3.478484 2.394432,-4.771716 1.105598,-1.105599 1.731387,-2.569953 1.727766,-4.1950825 v -0.00215 c 0,-1.5806003 -0.622591,-3.047034 -1.727766,-4.1522086 C 15.049177,3.6571994 13.580599,3.0324657 12,3.0324657 Z"
     id="path908" /><path
     style="color:#000000;font-style:normal;font-variant:normal;font-weight:normal;font-stretch:normal;font-size:medium;line-height:normal;font-family:sans-serif;font-variant-ligatures:normal;font-variant-position:normal;font-variant-caps:normal;font-variant-numeric:normal;font-variant-alternates:normal;font-feature-settings:normal;text-indent:0;text-align:start;text-decoration:none;text-decoration-line:none;text-decoration-style:solid;text-decoration-color:#000000;letter-spacing:normal;word-spacing:normal;text-transform:none;writing-mode:lr-tb;direction:ltr;text-orientation:mixed;dominant-baseline:auto;baseline-shift:baseline;text-anchor:start;white-space:normal;shape-padding:0;clip-rule:nonzero;display:inline;overflow:visible;visibility:visible;opacity:1;isolation:auto;mix-blend-mode:normal;color-interpolation:sRGB;color-interpolation-filters:linearRGB;solid-color:#000000;solid-opacity:1;vector-effect:none;fill:#000000;fill-opacity:1;fill-rule:nonzero;stroke:none;stroke-width:1.33202302px;stroke-linecap:round;stroke-linejoin:miter;stroke-miterlimit:4;stroke-dasharray:none;stroke-dashoffset:0;stroke-opacity:1;color-rendering:auto;image-rendering:auto;shape-rendering:auto;text-rendering:auto;enable-background:accumulate"
     d="M 11.014076,7.5959675 A 0.66607806,0.66607806 0 0 0 10.358471,8.334824 l 0.946985,9.956352 a 0.66646497,0.66646497 0 0 0 0.01033,0.06244 0.66646497,0.66646497 0 0 0 0,0.0026 l -0.0077,0.05983 a 0.66607806,0.66607806 0 1 0 1.321615,0.163902 L 13.849827,8.6912443 A 0.66607806,0.66607806 0 0 0 13.194223,7.9341765 0.66607806,0.66607806 0 0 0 12.528212,8.5273431 L 12.067727,12.252845 11.68269,8.2073453 A 0.66607806,0.66607806 0 0 0 11.014076,7.5959675 Z"
     id="path879" /><path
     style="stroke-width:0.0338663"
     d="m 11.999943,0.80042515 c -2.199788,0 -4.2580733,0.85895225 -5.8232414,2.38918315 v 0.0021 h -0.0021 c -1.566844,1.566844 -2.3912709,3.628382 -2.3912709,5.8253292 0,2.1997855 0.858952,4.2580735 2.3891832,5.8232405 h 0.0021 v 0.0021 c 2.1257469,2.759185 1.398249,3.067609 1.7728914,6.496761 1.9940102,2.38879 6.0892137,2.570694 8.0588177,0 0.370377,-2.854052 -0.25422,-4.366151 1.819074,-6.500948 1.566847,-1.566848 2.391278,-3.62839 2.391278,-5.8253352 0,-2.1997891 -0.858953,-4.2559794 -2.389182,-5.8211475 l -0.0021,-0.0021 C 16.258344,1.6225229 14.196605,0.80042515 11.999943,0.80042515 Z m 0,2.70327395 c 1.480461,0 2.855379,0.5834572 3.890536,1.6186138 1.035156,1.0351566 1.618614,2.4100748 1.618614,3.8905367 v 0.0021 c 0.0034,1.5221704 -0.58306,2.8926734 -1.618614,3.9282264 -1.211301,1.211301 -1.97632,2.773763 -2.242608,4.470558 l -3.295856,-0.0335 C 10.085479,15.714054 9.3171967,14.149906 8.1115004,12.907573 h -0.0021 v -0.0021 C 7.074247,11.870373 6.4907923,10.49331 6.4907923,9.0128496 c 0,-1.480462 0.5834579,-2.8553802 1.6186142,-3.8905367 C 9.1445634,4.0871563 10.51948,3.5036991 11.999943,3.5036991 Z"
     id="path2-3" /></svg>